<svg xmlns="http://www.w3.org/2000/svg" width="21.832" height="20.501" viewBox="0 0 21.832 20.501">
  <path id="mic" d="M86.571,110.267l1.257,6.072a1.5,1.5,0,0,0,1.467,1.194H91a1.636,1.636,0,0,0,1.346-.738,1.16,1.16,0,0,0,.1-1.128,12.346,12.346,0,0,0-.6-1.1,6.639,6.639,0,0,1-1.269-4.305H91.9a.3.3,0,0,0,.3-.3v-.049c2.431.237,5.545,3.25,7.437,5.085,1.173,1.138,1.558,1.5,1.864,1.5a1.514,1.514,0,0,0,1.513-1.513v-4.9c1.311-.02,2.333-1.547,2.333-3.494s-1.023-3.473-2.333-3.493V98.545a1.514,1.514,0,0,0-1.513-1.513c-.307,0-.709.369-1.933,1.534-1.909,1.818-5.048,4.8-7.368,5.047v-.047a.3.3,0,0,0-.3-.3h-6.46a1.927,1.927,0,0,0-1.925,1.925v3.15a1.927,1.927,0,0,0,1.925,1.926Zm16.44-6.569c.943.024,1.734,1.336,1.734,2.891s-.791,2.868-1.734,2.892Zm-10.814.525c2.544-.234,5.8-3.339,7.781-5.222a16.329,16.329,0,0,1,1.52-1.369.915.915,0,0,1,.914.914v16.442a.915.915,0,0,1-.885.914,12.464,12.464,0,0,1-1.476-1.328c-1.96-1.9-5.194-5.037-7.854-5.264Zm-.871,10.655a11.877,11.877,0,0,1,.574,1.041.564.564,0,0,1-.059.554,1.052,1.052,0,0,1-.842.462h-1.7a.9.9,0,0,1-.881-.717l-1.231-5.951h2.788A7.242,7.242,0,0,0,91.326,114.877Zm-7.214-6.536v-3.15a1.327,1.327,0,0,1,1.326-1.326H91.6v5.8H85.438A1.328,1.328,0,0,1,84.112,108.341Z" transform="translate(-83.513 -97.032)" fill="#fff"/>
</svg>
