<svg xmlns="http://www.w3.org/2000/svg" width="53.802" height="36.225" viewBox="0 0 53.802 36.225">
  <path id="Free_Delivery" data-name="Free Delivery" d="M260.618,355.87h-8.531v-3.6a2.431,2.431,0,0,0-2.428-2.428H221.609a2.431,2.431,0,0,0-2.428,2.428V377.36a2.431,2.431,0,0,0,2.428,2.428H224.9a6.458,6.458,0,0,0,12.911,0H255.4a6.459,6.459,0,0,0,12.912,0h2.238a2.432,2.432,0,0,0,2.429-2.428v-9.124A12.38,12.38,0,0,0,260.618,355.87Zm-29.26,28.442a4.7,4.7,0,0,1-4.672-5.294h0a4.655,4.655,0,0,1,.681-1.911c.014-.022.026-.045.041-.066l.007-.012q.051-.078.106-.155h0l.005-.008.009-.012h0c.035-.048.07-.1.107-.142l.023-.03h0c.035-.045.071-.088.108-.132h0l.029-.033h0q.055-.063.112-.124h0l.033-.034h0c.038-.039.076-.079.115-.117l.035-.034h0c.04-.038.079-.076.121-.113l.033-.029h0c.042-.037.085-.074.128-.109l.021-.016h0a4.771,4.771,0,0,1,.46-.327h0l.036-.023h0l.088-.052.024-.014h0l.035-.02.041-.024h0l.079-.041.026-.013h0l.026-.014.066-.034h0l.086-.04.015-.007h0l.1-.045h0l.1-.041h0l.105-.042h0l.1-.036h0l.11-.037h0l.1-.031h0l.118-.033h0l.1-.025h0l.124-.029h0l.011,0,.083-.018h0c.043-.009.086-.016.13-.024h0l.033-.005.06-.009h0l.142-.018h0l.041,0,.043-.005h0c.054-.005.108-.009.162-.012h0l.07,0a4.52,4.52,0,0,1,.469,0l.067,0h0c.055,0,.109.007.163.012h0l.045.005.041,0h0l.142.018h0l.061.01.031,0h0c.043.008.088.015.13.024h0l.077.016.019,0h0l.124.029h0l.1.026h0c.04.01.079.022.118.033h0l.1.031c.037.012.075.024.111.038h0l.1.036h0l.107.042h0l.1.041h0c.034.014.067.03.1.045h0l.02.009.081.038h0l.066.034.026.014h0l.026.014c.026.014.052.026.077.041h0l.043.025.034.02h0l.029.017.084.049h0l0,0,.035.022a4.862,4.862,0,0,1,.458.326h0l.02.016c.044.036.086.073.129.11h0l.033.028h0c.041.037.081.075.121.113h0l.035.033h0c.039.038.078.077.116.117h0l.031.033h0c.039.041.076.083.113.125h0l.028.032h0c.037.043.073.088.109.132l.023.03h0c.037.047.073.094.108.143h0l.014.02h0c.036.052.071.1.106.155l.005.008h0v0c.014.022.026.044.04.066a4.647,4.647,0,0,1,.681,1.913h0a4.7,4.7,0,0,1-4.673,5.293Zm18.979-27.567v21.292H237.625a6.382,6.382,0,0,0-.846-1.947h0v0h0l-.01-.014h0l0,0v0c-.046-.071-.094-.141-.142-.208v0l-.019-.026h0c-.047-.065-.1-.13-.145-.193h0l-.031-.039h0c-.049-.061-.1-.122-.149-.181h0l-.039-.045h0c-.05-.058-.1-.114-.153-.17h0l-.046-.047h0c-.052-.054-.1-.107-.157-.159h0l-.047-.045h0c-.054-.052-.109-.1-.165-.153h0l-.036-.032-.009-.007h0c-.058-.052-.117-.1-.178-.151h0l-.027-.022h0a6.526,6.526,0,0,0-.625-.445h0l0,0-.046-.029h0l-.128-.075-.026-.015h0l-.025-.015-.081-.046h0c-.039-.022-.079-.042-.118-.062l-.024-.013h0l-.022-.012-.1-.052h0l-.119-.056-.018-.008h0l-.138-.063h0c-.045-.02-.091-.038-.136-.056h0l-.146-.058h0l-.136-.049h0c-.051-.018-.1-.035-.153-.052h0c-.045-.015-.09-.029-.135-.042h0l-.162-.046h0l-.133-.035h0l-.17-.039h0l-.017,0-.113-.024h0l-.18-.033h0l-.025,0-.1-.016h0c-.064-.01-.129-.017-.193-.025h0l-.029,0-.088-.01h0c-.073-.007-.147-.012-.221-.017h-.022l-.071,0h0a6.342,6.342,0,0,0-.643,0h0l-.071,0h-.021c-.075,0-.149.01-.223.017h0l-.089.01-.029,0h0c-.064.008-.129.016-.193.025h0l-.1.016-.028,0h0c-.06.009-.119.02-.178.032h0l-.121.026-.01,0h0l-.17.039h0l-.134.035h0l-.162.046h0l-.136.042h0l-.151.051h0l-.136.049h0l-.145.058h0l-.137.057h0l-.138.062h0l-.012.005c-.042.02-.085.039-.126.06h0l-.1.052-.023.012h0l-.024.012-.119.063h0l-.081.046-.025.014h0l-.022.013c-.045.025-.09.051-.134.078h0l-.05.031h0c-.109.068-.216.14-.321.214s-.191.141-.283.214l-.022.017h0l-.029.023h0c-.06.049-.119.1-.178.151h0l-.009.008-.035.031h0c-.056.05-.111.1-.166.154h0l-.047.045h0c-.054.052-.106.106-.158.16h0l-.045.047h0c-.051.055-.1.111-.15.167h0l-.041.047h0c-.051.059-.1.119-.149.181h0l-.031.039h0c-.05.064-.1.129-.146.195h0l-.019.027h0l0,0,0,0h0c-.049.069-.1.138-.143.21h0l-.009.014h0a6.391,6.391,0,0,0-.848,1.949h-3.48a.679.679,0,0,1-.678-.677V352.266a.679.679,0,0,1,.678-.678h28.049a.679.679,0,0,1,.678.678Zm11.523,27.567a4.7,4.7,0,0,1-4.672-5.293h0a4.647,4.647,0,0,1,.721-1.979l.007-.012c.035-.052.07-.1.107-.155h0l.016-.022h0c.035-.048.071-.1.107-.142h0l.023-.029h0c.035-.044.071-.088.109-.131h0l.025-.029,0,0h0c.036-.042.073-.083.111-.124l.033-.034h0c.038-.04.076-.079.115-.117h0l.036-.033c.039-.038.079-.075.119-.112h0l.034-.029h0c.042-.037.084-.074.128-.109l.021-.017h0c.04-.032.083-.063.124-.094s.064-.05.1-.074c.077-.054.155-.107.234-.156h0l.04-.026.084-.05.027-.015h0l.036-.021.042-.024h0l.076-.04.028-.014h0l.024-.012.069-.035h0l.085-.04.015-.007.007,0h0l.093-.042h0l.1-.041h0l.107-.042h0l.1-.036h0l.111-.038h0l.1-.031h0l.118-.034h0l.1-.025h0l.124-.029.018,0,.077-.016h0l.13-.024h0l.031,0,.062-.01h0l.137-.018h0l.041,0,.044-.005h0c.054-.005.109-.009.163-.012h0l.069,0a4.506,4.506,0,0,1,.468,0l.069,0h0c.055,0,.109.007.164.012h0l.045.005.041,0h0l.138.017h0l.062.01.03,0h0l.131.024h0l.078.016.018,0h0l.124.029h0l.1.025h0l.119.034.1.031c.038.012.075.024.112.038h0l.1.036h0l.107.042h0l.1.041h0c.033.014.064.029.1.045l.02.009.081.038c.023.011.045.023.067.035l.025.013h0l.025.013.078.041h0l.042.024.035.02h0l.026.015c.028.016.057.033.084.05l.04.026h0a4.727,4.727,0,0,1,.457.325h0l.02.016h0c.043.036.086.073.129.111h0l.033.028h0c.041.037.081.075.121.113h0l.035.033h0l.115.117h0l.033.035c.038.04.075.082.111.124h0l.027.031h0c.037.043.073.088.109.132l.024.03h0c.037.047.073.094.108.143h0l.016.022h0c.037.052.072.1.107.155l.007.01h0a4.648,4.648,0,0,1,.681,1.715c.016.088.029.176.041.265h0a4.7,4.7,0,0,1-4.673,5.293Zm9.372-6.953a.679.679,0,0,1-.678.677h-2.426a6.372,6.372,0,0,0-.844-1.943l0,0h0l-.01-.016h0v0h0q-.07-.107-.143-.21h0l-.022-.031h0c-.047-.066-.1-.13-.146-.195h0l-.03-.038h0c-.048-.061-.1-.122-.149-.181h0l-.041-.047h0c-.05-.057-.1-.113-.151-.168h0l-.043-.046h0q-.078-.082-.159-.161h0l-.047-.045h0c-.054-.052-.109-.1-.164-.153h0l-.037-.032-.009-.007h0c-.058-.052-.117-.1-.178-.151h0l-.031-.024h0a6.573,6.573,0,0,0-.621-.442h0l-.007,0-.046-.029h0c-.043-.026-.086-.052-.13-.077l-.024-.014h0l-.027-.015-.08-.046h0l-.119-.063-.023-.012h0l-.022-.012-.1-.053h0l-.119-.056-.019-.008h0l-.135-.061h0l-.136-.056h0l-.145-.057h0l-.136-.049h0c-.05-.018-.1-.035-.153-.052h0c-.044-.015-.089-.029-.134-.042h0c-.054-.016-.108-.031-.162-.046h0l-.133-.035h0l-.17-.039h0l-.016,0-.114-.024h0l-.178-.032h0l-.026,0-.1-.016h0c-.063-.01-.126-.017-.189-.024h0l-.029,0-.09-.01h0c-.073-.007-.147-.012-.221-.017h-.022l-.071,0h0a6.329,6.329,0,0,0-.642,0h0l-.071,0h-.022c-.074,0-.148.01-.221.017h0l-.09.01-.029,0h0c-.062.008-.126.015-.188.024h0l-.1.016-.026,0h0l-.178.032h0l-.113.024-.018,0h0l-.17.039h0l-.133.035h0l-.161.046h0c-.045.013-.09.027-.134.041h0c-.052.016-.1.034-.156.052h0l-.135.049h0l-.146.058h0l-.136.056h0l-.137.062h0l-.014.007c-.041.019-.084.038-.124.058h0l-.106.054-.02.011h0l-.025.013-.116.061h0l-.081.046-.026.015h0l-.024.014c-.043.025-.087.05-.13.077h0l-.046.029-.007,0h0l-.02.013c-.1.064-.2.131-.3.2s-.2.15-.3.228h0l-.031.024h0c-.06.049-.118.1-.176.15h0l-.009.008-.037.031h0c-.056.05-.111.1-.165.154h0l-.012.012-.036.034h0c-.054.052-.105.105-.157.159h0l-.044.047h0c-.052.056-.1.112-.153.17h0l-.037.043h0c-.05.058-.1.117-.146.177h0l-.033.041h0c-.05.064-.1.128-.146.194h0l-.022.031h0c-.049.068-.1.137-.142.208v0l0,0h0l-.009.014h0l0,.008a6.38,6.38,0,0,0-.844,1.942h-3.5V357.622h8.531a10.626,10.626,0,0,1,10.615,10.615Z" transform="translate(-219.181 -349.838)" fill="#fff"/>
</svg>
