<svg xmlns="http://www.w3.org/2000/svg" width="39.677" height="36.746" viewBox="0 0 39.677 36.746">
  <g id="_24_7_Support" data-name="24/7 Support" transform="translate(-242.263 -381.647)">
    <path id="Path_18" data-name="Path 18" d="M281.639,393.955a.529.529,0,0,0-.706.249l-2.007,4.19a18.374,18.374,0,1,0-18.29,20,.529.529,0,0,0,0-1.059,17.314,17.314,0,1,1,17.285-17.886L273.1,395.71a.53.53,0,0,0-.65.837l5.708,4.423c.01.008.022.005.033.012a.474.474,0,0,0,.064.048.527.527,0,0,0,.229.052.532.532,0,0,0,.254-.072.513.513,0,0,0,.066-.053.539.539,0,0,0,.1-.079.578.578,0,0,0,.034-.068c.006-.012.019-.017.025-.029l2.932-6.119A.529.529,0,0,0,281.639,393.955Z" transform="translate(0)" fill="#fff"/>
    <path id="Path_19" data-name="Path 19" d="M259.815,402.486a2.568,2.568,0,0,0,2.565-2.565A2.538,2.538,0,0,0,262,398.6l7.822-8.307a.53.53,0,1,0-.772-.725l-7.772,8.255a2.538,2.538,0,0,0-3.486.542l-6.524-3.848a.53.53,0,1,0-.538.913l6.6,3.89a2.537,2.537,0,0,0-.079.6A2.568,2.568,0,0,0,259.815,402.486Zm0-4.072a1.507,1.507,0,1,1-1.507,1.507A1.509,1.509,0,0,1,259.815,398.414Z" transform="translate(0.482 0.456)" fill="#fff"/>
    <path id="Path_20" data-name="Path 20" d="M259.494,388.748V386.06a.529.529,0,1,0-1.059,0v2.687a.529.529,0,1,0,1.059,0Z" transform="translate(0.951 0.228)" fill="#fff"/>
    <path id="Path_21" data-name="Path 21" d="M245.454,398.836a.529.529,0,1,0,0,1.059h3.059a.529.529,0,1,0,0-1.059Z" transform="translate(0.156 1.01)" fill="#fff"/>
    <path id="Path_22" data-name="Path 22" d="M270.132,413.456v-.107a.517.517,0,0,0-.517-.518h-4.873v-.255q0-1.555,2.391-3.2l.508-.347a13.046,13.046,0,0,0,1.125-.912,3.42,3.42,0,0,0,.925-1.172,2.89,2.89,0,0,0,.233-1.116,2.432,2.432,0,0,0-.748-1.787,3.469,3.469,0,0,0-2.505-.744,3.8,3.8,0,0,0-1.593.293,2.627,2.627,0,0,0-1,.782,1.678,1.678,0,0,0-.371,1.034v.068h1.242v-.068a.948.948,0,0,1,.415-.744,2.015,2.015,0,0,1,1.268-.33,2.053,2.053,0,0,1,1.442.461,1.4,1.4,0,0,1,.5,1.056,1.923,1.923,0,0,1-.374,1.116,9.841,9.841,0,0,1-1.784,1.616l-.7.541a6.17,6.17,0,0,0-1.75,1.941,3.98,3.98,0,0,0-.521,1.833v.559a.517.517,0,0,0,.518.517h5.651A.516.516,0,0,0,270.132,413.456Z" transform="translate(1.245 1.273)" fill="#fff"/>
    <path id="Path_23" data-name="Path 23" d="M278.774,409.761h-.415a.517.517,0,0,1-.517-.517v-5.137a.518.518,0,0,0-.518-.518h-.477a.515.515,0,0,0-.4.193l-4.706,5.837a.518.518,0,0,0-.114.325v.335a.517.517,0,0,0,.517.518h3.942a.518.518,0,0,1,.517.518v2.125a.517.517,0,0,0,.518.517h.207a.517.517,0,0,0,.518-.517v-2.125a.518.518,0,0,1,.517-.518h.415a.518.518,0,1,0,0-1.035Zm-2.175-.517a.517.517,0,0,1-.517.517h-2.024a.517.517,0,0,1-.406-.839l2.024-2.546a.517.517,0,0,1,.922.322Z" transform="translate(1.726 1.29)" fill="#fff"/>
  </g>
</svg>
